EESchema Schematic File Version 4
EELAYER 30 0
EELAYER END
$Descr A4 11693 8268
encoding utf-8
Sheet 1 1
Title ""
Date ""
Rev ""
Comp ""
Comment1 ""
Comment2 ""
Comment3 ""
Comment4 ""
$EndDescr
Wire Wire Line
	7900 3300 8350 3300
Wire Wire Line
	7900 3400 7900 3300
$Comp
L power:GND #PWR05
U 1 1 5F7E177B
P 7900 3400
F 0 "#PWR05" H 7900 3150 50  0001 C CNN
F 1 "GND" H 7905 3227 50  0000 C CNN
F 2 "" H 7900 3400 50  0001 C CNN
F 3 "" H 7900 3400 50  0001 C CNN
	1    7900 3400
	1    0    0    -1  
$EndComp
Wire Wire Line
	8350 2500 8200 2500
Wire Wire Line
	8200 2600 8350 2600
Wire Wire Line
	8200 2700 8350 2700
Wire Wire Line
	8350 2800 8200 2800
Wire Wire Line
	8200 2900 8350 2900
Wire Wire Line
	8200 3000 8350 3000
Wire Wire Line
	8200 3100 8350 3100
Wire Wire Line
	8200 3200 8350 3200
Text GLabel 8200 3200 0    50   Input ~ 0
IN8
Text GLabel 8200 3100 0    50   Input ~ 0
IN7
Text GLabel 8200 3000 0    50   Input ~ 0
IN6
Text GLabel 8200 2900 0    50   Input ~ 0
IN5
Text GLabel 8200 2800 0    50   Input ~ 0
IN4
Text GLabel 8200 2700 0    50   Input ~ 0
IN3
Text GLabel 8200 2600 0    50   Input ~ 0
IN2
Text GLabel 8200 2500 0    50   Input ~ 0
IN1
$Comp
L Connector_Generic:Conn_01x10 J0
U 1 1 5F7DA8A2
P 8550 2900
F 0 "J0" H 8630 2892 50  0000 L CNN
F 1 "Conn_01x10" H 8630 2801 50  0000 L CNN
F 2 "" H 8550 2900 50  0001 C CNN
F 3 "~" H 8550 2900 50  0001 C CNN
	1    8550 2900
	1    0    0    -1  
$EndComp
Wire Wire Line
	1500 1350 1900 1350
Wire Wire Line
	1850 1150 1900 1150
Wire Wire Line
	1500 1300 1500 1350
Wire Wire Line
	1450 1300 1500 1300
Wire Wire Line
	1500 1200 1450 1200
Wire Wire Line
	1500 1150 1500 1200
Wire Wire Line
	1550 1150 1500 1150
$Comp
L power:VCC #PWR01
U 1 1 5F7FBDC3
P 2600 1000
F 0 "#PWR01" H 2600 850 50  0001 C CNN
F 1 "VCC" H 2615 1173 50  0000 C CNN
F 2 "" H 2600 1000 50  0001 C CNN
F 3 "" H 2600 1000 50  0001 C CNN
	1    2600 1000
	1    0    0    -1  
$EndComp
$Comp
L Connector_Generic:Conn_01x02 J1
U 1 1 5F7EA379
P 1250 1200
F 0 "J1" H 1168 1417 50  0000 C CNN
F 1 "Conn_01x02" H 1168 1326 50  0000 C CNN
F 2 "" H 1250 1200 50  0001 C CNN
F 3 "~" H 1250 1200 50  0001 C CNN
	1    1250 1200
	-1   0    0    -1  
$EndComp
Text GLabel 2800 1350 2    50   Input ~ 0
IN1
Connection ~ 2600 1350
Wire Wire Line
	2600 1350 2800 1350
Wire Wire Line
	2600 1150 2500 1150
Wire Wire Line
	2600 1000 2600 1150
Wire Wire Line
	2600 1850 2600 1750
$Comp
L power:GND #PWR02
U 1 1 5F7D6D20
P 2600 1850
F 0 "#PWR02" H 2600 1600 50  0001 C CNN
F 1 "GND" H 2605 1677 50  0000 C CNN
F 2 "" H 2600 1850 50  0001 C CNN
F 3 "" H 2600 1850 50  0001 C CNN
	1    2600 1850
	1    0    0    -1  
$EndComp
Wire Wire Line
	2600 1350 2500 1350
Wire Wire Line
	2600 1450 2600 1350
$Comp
L Device:R R2
U 1 1 5F7D5D2F
P 2600 1600
F 0 "R2" H 2530 1554 50  0000 R CNN
F 1 "10k" H 2530 1645 50  0000 R CNN
F 2 "" V 2530 1600 50  0001 C CNN
F 3 "~" H 2600 1600 50  0001 C CNN
	1    2600 1600
	-1   0    0    1   
$EndComp
$Comp
L Device:R R1
U 1 1 5F7D4870
P 1700 1150
F 0 "R1" V 1493 1150 50  0000 C CNN
F 1 "1200" V 1584 1150 50  0000 C CNN
F 2 "" V 1630 1150 50  0001 C CNN
F 3 "~" H 1700 1150 50  0001 C CNN
	1    1700 1150
	0    1    1    0   
$EndComp
$Comp
L Isolator:PC817 U1
U 1 1 5F7D3928
P 2200 1250
F 0 "U1" H 2200 1575 50  0000 C CNN
F 1 "PC817" H 2200 1484 50  0000 C CNN
F 2 "Package_DIP:DIP-4_W7.62mm" H 2000 1050 50  0001 L CIN
F 3 "http://www.soselectronic.cz/a_info/resource/d/pc817.pdf" H 2200 1250 50  0001 L CNN
	1    2200 1250
	1    0    0    -1  
$EndComp
Wire Wire Line
	1500 2750 1900 2750
Wire Wire Line
	1850 2550 1900 2550
Wire Wire Line
	1500 2700 1500 2750
Wire Wire Line
	1450 2700 1500 2700
Wire Wire Line
	1500 2600 1450 2600
Wire Wire Line
	1500 2550 1500 2600
Wire Wire Line
	1550 2550 1500 2550
$Comp
L power:VCC #PWR03
U 1 1 5F86446C
P 2600 2400
F 0 "#PWR03" H 2600 2250 50  0001 C CNN
F 1 "VCC" H 2615 2573 50  0000 C CNN
F 2 "" H 2600 2400 50  0001 C CNN
F 3 "" H 2600 2400 50  0001 C CNN
	1    2600 2400
	1    0    0    -1  
$EndComp
$Comp
L Connector_Generic:Conn_01x02 J2
U 1 1 5F864472
P 1250 2600
F 0 "J2" H 1168 2817 50  0000 C CNN
F 1 "Conn_01x02" H 1168 2726 50  0000 C CNN
F 2 "" H 1250 2600 50  0001 C CNN
F 3 "~" H 1250 2600 50  0001 C CNN
	1    1250 2600
	-1   0    0    -1  
$EndComp
Text GLabel 2800 2750 2    50   Input ~ 0
IN2
Connection ~ 2600 2750
Wire Wire Line
	2600 2750 2800 2750
Wire Wire Line
	2600 2550 2500 2550
Wire Wire Line
	2600 2400 2600 2550
Wire Wire Line
	2600 3250 2600 3150
$Comp
L power:GND #PWR04
U 1 1 5F86447E
P 2600 3250
F 0 "#PWR04" H 2600 3000 50  0001 C CNN
F 1 "GND" H 2605 3077 50  0000 C CNN
F 2 "" H 2600 3250 50  0001 C CNN
F 3 "" H 2600 3250 50  0001 C CNN
	1    2600 3250
	1    0    0    -1  
$EndComp
Wire Wire Line
	2600 2750 2500 2750
Wire Wire Line
	2600 2850 2600 2750
$Comp
L Device:R R4
U 1 1 5F864486
P 2600 3000
F 0 "R4" H 2530 2954 50  0000 R CNN
F 1 "10k" H 2530 3045 50  0000 R CNN
F 2 "" V 2530 3000 50  0001 C CNN
F 3 "~" H 2600 3000 50  0001 C CNN
	1    2600 3000
	-1   0    0    1   
$EndComp
$Comp
L Device:R R3
U 1 1 5F86448C
P 1700 2550
F 0 "R3" V 1493 2550 50  0000 C CNN
F 1 "1200" V 1584 2550 50  0000 C CNN
F 2 "" V 1630 2550 50  0001 C CNN
F 3 "~" H 1700 2550 50  0001 C CNN
	1    1700 2550
	0    1    1    0   
$EndComp
$Comp
L Isolator:PC817 U2
U 1 1 5F864492
P 2200 2650
F 0 "U2" H 2200 2975 50  0000 C CNN
F 1 "PC817" H 2200 2884 50  0000 C CNN
F 2 "Package_DIP:DIP-4_W7.62mm" H 2000 2450 50  0001 L CIN
F 3 "http://www.soselectronic.cz/a_info/resource/d/pc817.pdf" H 2200 2650 50  0001 L CNN
	1    2200 2650
	1    0    0    -1  
$EndComp
Wire Wire Line
	1500 4150 1900 4150
Wire Wire Line
	1850 3950 1900 3950
Wire Wire Line
	1500 4100 1500 4150
Wire Wire Line
	1450 4100 1500 4100
Wire Wire Line
	1500 4000 1450 4000
Wire Wire Line
	1500 3950 1500 4000
Wire Wire Line
	1550 3950 1500 3950
$Comp
L power:VCC #PWR06
U 1 1 5F8747CD
P 2600 3800
F 0 "#PWR06" H 2600 3650 50  0001 C CNN
F 1 "VCC" H 2615 3973 50  0000 C CNN
F 2 "" H 2600 3800 50  0001 C CNN
F 3 "" H 2600 3800 50  0001 C CNN
	1    2600 3800
	1    0    0    -1  
$EndComp
$Comp
L Connector_Generic:Conn_01x02 J3
U 1 1 5F8747D3
P 1250 4000
F 0 "J3" H 1168 4217 50  0000 C CNN
F 1 "Conn_01x02" H 1168 4126 50  0000 C CNN
F 2 "" H 1250 4000 50  0001 C CNN
F 3 "~" H 1250 4000 50  0001 C CNN
	1    1250 4000
	-1   0    0    -1  
$EndComp
Text GLabel 2800 4150 2    50   Input ~ 0
IN3
Connection ~ 2600 4150
Wire Wire Line
	2600 4150 2800 4150
Wire Wire Line
	2600 3950 2500 3950
Wire Wire Line
	2600 3800 2600 3950
Wire Wire Line
	2600 4650 2600 4550
$Comp
L power:GND #PWR07
U 1 1 5F8747DF
P 2600 4650
F 0 "#PWR07" H 2600 4400 50  0001 C CNN
F 1 "GND" H 2605 4477 50  0000 C CNN
F 2 "" H 2600 4650 50  0001 C CNN
F 3 "" H 2600 4650 50  0001 C CNN
	1    2600 4650
	1    0    0    -1  
$EndComp
Wire Wire Line
	2600 4150 2500 4150
Wire Wire Line
	2600 4250 2600 4150
$Comp
L Device:R R6
U 1 1 5F8747E7
P 2600 4400
F 0 "R6" H 2530 4354 50  0000 R CNN
F 1 "10k" H 2530 4445 50  0000 R CNN
F 2 "" V 2530 4400 50  0001 C CNN
F 3 "~" H 2600 4400 50  0001 C CNN
	1    2600 4400
	-1   0    0    1   
$EndComp
$Comp
L Device:R R5
U 1 1 5F8747ED
P 1700 3950
F 0 "R5" V 1493 3950 50  0000 C CNN
F 1 "1200" V 1584 3950 50  0000 C CNN
F 2 "" V 1630 3950 50  0001 C CNN
F 3 "~" H 1700 3950 50  0001 C CNN
	1    1700 3950
	0    1    1    0   
$EndComp
$Comp
L Isolator:PC817 U3
U 1 1 5F8747F3
P 2200 4050
F 0 "U3" H 2200 4375 50  0000 C CNN
F 1 "PC817" H 2200 4284 50  0000 C CNN
F 2 "Package_DIP:DIP-4_W7.62mm" H 2000 3850 50  0001 L CIN
F 3 "http://www.soselectronic.cz/a_info/resource/d/pc817.pdf" H 2200 4050 50  0001 L CNN
	1    2200 4050
	1    0    0    -1  
$EndComp
Wire Wire Line
	1500 5550 1900 5550
Wire Wire Line
	1850 5350 1900 5350
Wire Wire Line
	1500 5500 1500 5550
Wire Wire Line
	1450 5500 1500 5500
Wire Wire Line
	1500 5400 1450 5400
Wire Wire Line
	1500 5350 1500 5400
Wire Wire Line
	1550 5350 1500 5350
$Comp
L power:VCC #PWR08
U 1 1 5F874800
P 2600 5200
F 0 "#PWR08" H 2600 5050 50  0001 C CNN
F 1 "VCC" H 2615 5373 50  0000 C CNN
F 2 "" H 2600 5200 50  0001 C CNN
F 3 "" H 2600 5200 50  0001 C CNN
	1    2600 5200
	1    0    0    -1  
$EndComp
$Comp
L Connector_Generic:Conn_01x02 J4
U 1 1 5F874806
P 1250 5400
F 0 "J4" H 1168 5617 50  0000 C CNN
F 1 "Conn_01x02" H 1168 5526 50  0000 C CNN
F 2 "" H 1250 5400 50  0001 C CNN
F 3 "~" H 1250 5400 50  0001 C CNN
	1    1250 5400
	-1   0    0    -1  
$EndComp
Text GLabel 2800 5550 2    50   Input ~ 0
IN4
Connection ~ 2600 5550
Wire Wire Line
	2600 5550 2800 5550
Wire Wire Line
	2600 5350 2500 5350
Wire Wire Line
	2600 5200 2600 5350
Wire Wire Line
	2600 6050 2600 5950
$Comp
L power:GND #PWR09
U 1 1 5F874812
P 2600 6050
F 0 "#PWR09" H 2600 5800 50  0001 C CNN
F 1 "GND" H 2605 5877 50  0000 C CNN
F 2 "" H 2600 6050 50  0001 C CNN
F 3 "" H 2600 6050 50  0001 C CNN
	1    2600 6050
	1    0    0    -1  
$EndComp
Wire Wire Line
	2600 5550 2500 5550
Wire Wire Line
	2600 5650 2600 5550
$Comp
L Device:R R8
U 1 1 5F87481A
P 2600 5800
F 0 "R8" H 2530 5754 50  0000 R CNN
F 1 "10k" H 2530 5845 50  0000 R CNN
F 2 "" V 2530 5800 50  0001 C CNN
F 3 "~" H 2600 5800 50  0001 C CNN
	1    2600 5800
	-1   0    0    1   
$EndComp
$Comp
L Device:R R7
U 1 1 5F874820
P 1700 5350
F 0 "R7" V 1493 5350 50  0000 C CNN
F 1 "1200" V 1584 5350 50  0000 C CNN
F 2 "" V 1630 5350 50  0001 C CNN
F 3 "~" H 1700 5350 50  0001 C CNN
	1    1700 5350
	0    1    1    0   
$EndComp
$Comp
L Isolator:PC817 U4
U 1 1 5F874826
P 2200 5450
F 0 "U4" H 2200 5775 50  0000 C CNN
F 1 "PC817" H 2200 5684 50  0000 C CNN
F 2 "Package_DIP:DIP-4_W7.62mm" H 2000 5250 50  0001 L CIN
F 3 "http://www.soselectronic.cz/a_info/resource/d/pc817.pdf" H 2200 5450 50  0001 L CNN
	1    2200 5450
	1    0    0    -1  
$EndComp
Wire Wire Line
	4000 1350 4400 1350
Wire Wire Line
	4350 1150 4400 1150
Wire Wire Line
	4000 1300 4000 1350
Wire Wire Line
	3950 1300 4000 1300
Wire Wire Line
	4000 1200 3950 1200
Wire Wire Line
	4000 1150 4000 1200
Wire Wire Line
	4050 1150 4000 1150
$Comp
L power:VCC #PWR010
U 1 1 5F879FD2
P 5100 1000
F 0 "#PWR010" H 5100 850 50  0001 C CNN
F 1 "VCC" H 5115 1173 50  0000 C CNN
F 2 "" H 5100 1000 50  0001 C CNN
F 3 "" H 5100 1000 50  0001 C CNN
	1    5100 1000
	1    0    0    -1  
$EndComp
$Comp
L Connector_Generic:Conn_01x02 J5
U 1 1 5F879FD8
P 3750 1200
F 0 "J5" H 3668 1417 50  0000 C CNN
F 1 "Conn_01x02" H 3668 1326 50  0000 C CNN
F 2 "" H 3750 1200 50  0001 C CNN
F 3 "~" H 3750 1200 50  0001 C CNN
	1    3750 1200
	-1   0    0    -1  
$EndComp
Text GLabel 5300 1350 2    50   Input ~ 0
IN5
Connection ~ 5100 1350
Wire Wire Line
	5100 1350 5300 1350
Wire Wire Line
	5100 1150 5000 1150
Wire Wire Line
	5100 1000 5100 1150
Wire Wire Line
	5100 1850 5100 1750
$Comp
L power:GND #PWR011
U 1 1 5F879FE4
P 5100 1850
F 0 "#PWR011" H 5100 1600 50  0001 C CNN
F 1 "GND" H 5105 1677 50  0000 C CNN
F 2 "" H 5100 1850 50  0001 C CNN
F 3 "" H 5100 1850 50  0001 C CNN
	1    5100 1850
	1    0    0    -1  
$EndComp
Wire Wire Line
	5100 1350 5000 1350
Wire Wire Line
	5100 1450 5100 1350
$Comp
L Device:R R10
U 1 1 5F879FEC
P 5100 1600
F 0 "R10" H 5030 1554 50  0000 R CNN
F 1 "10k" H 5030 1645 50  0000 R CNN
F 2 "" V 5030 1600 50  0001 C CNN
F 3 "~" H 5100 1600 50  0001 C CNN
	1    5100 1600
	-1   0    0    1   
$EndComp
$Comp
L Device:R R9
U 1 1 5F879FF2
P 4200 1150
F 0 "R9" V 3993 1150 50  0000 C CNN
F 1 "1200" V 4084 1150 50  0000 C CNN
F 2 "" V 4130 1150 50  0001 C CNN
F 3 "~" H 4200 1150 50  0001 C CNN
	1    4200 1150
	0    1    1    0   
$EndComp
$Comp
L Isolator:PC817 U5
U 1 1 5F879FF8
P 4700 1250
F 0 "U5" H 4700 1575 50  0000 C CNN
F 1 "PC817" H 4700 1484 50  0000 C CNN
F 2 "Package_DIP:DIP-4_W7.62mm" H 4500 1050 50  0001 L CIN
F 3 "http://www.soselectronic.cz/a_info/resource/d/pc817.pdf" H 4700 1250 50  0001 L CNN
	1    4700 1250
	1    0    0    -1  
$EndComp
Wire Wire Line
	4000 2750 4400 2750
Wire Wire Line
	4350 2550 4400 2550
Wire Wire Line
	4000 2700 4000 2750
Wire Wire Line
	3950 2700 4000 2700
Wire Wire Line
	4000 2600 3950 2600
Wire Wire Line
	4000 2550 4000 2600
Wire Wire Line
	4050 2550 4000 2550
$Comp
L power:VCC #PWR012
U 1 1 5F87A005
P 5100 2400
F 0 "#PWR012" H 5100 2250 50  0001 C CNN
F 1 "VCC" H 5115 2573 50  0000 C CNN
F 2 "" H 5100 2400 50  0001 C CNN
F 3 "" H 5100 2400 50  0001 C CNN
	1    5100 2400
	1    0    0    -1  
$EndComp
$Comp
L Connector_Generic:Conn_01x02 J6
U 1 1 5F87A00B
P 3750 2600
F 0 "J6" H 3668 2817 50  0000 C CNN
F 1 "Conn_01x02" H 3668 2726 50  0000 C CNN
F 2 "" H 3750 2600 50  0001 C CNN
F 3 "~" H 3750 2600 50  0001 C CNN
	1    3750 2600
	-1   0    0    -1  
$EndComp
Text GLabel 5300 2750 2    50   Input ~ 0
IN6
Connection ~ 5100 2750
Wire Wire Line
	5100 2750 5300 2750
Wire Wire Line
	5100 2550 5000 2550
Wire Wire Line
	5100 2400 5100 2550
Wire Wire Line
	5100 3250 5100 3150
$Comp
L power:GND #PWR013
U 1 1 5F87A017
P 5100 3250
F 0 "#PWR013" H 5100 3000 50  0001 C CNN
F 1 "GND" H 5105 3077 50  0000 C CNN
F 2 "" H 5100 3250 50  0001 C CNN
F 3 "" H 5100 3250 50  0001 C CNN
	1    5100 3250
	1    0    0    -1  
$EndComp
Wire Wire Line
	5100 2750 5000 2750
Wire Wire Line
	5100 2850 5100 2750
$Comp
L Device:R R12
U 1 1 5F87A01F
P 5100 3000
F 0 "R12" H 5030 2954 50  0000 R CNN
F 1 "10k" H 5030 3045 50  0000 R CNN
F 2 "" V 5030 3000 50  0001 C CNN
F 3 "~" H 5100 3000 50  0001 C CNN
	1    5100 3000
	-1   0    0    1   
$EndComp
$Comp
L Device:R R11
U 1 1 5F87A025
P 4200 2550
F 0 "R11" V 3993 2550 50  0000 C CNN
F 1 "1200" V 4084 2550 50  0000 C CNN
F 2 "" V 4130 2550 50  0001 C CNN
F 3 "~" H 4200 2550 50  0001 C CNN
	1    4200 2550
	0    1    1    0   
$EndComp
$Comp
L Isolator:PC817 U6
U 1 1 5F87A02B
P 4700 2650
F 0 "U6" H 4700 2975 50  0000 C CNN
F 1 "PC817" H 4700 2884 50  0000 C CNN
F 2 "Package_DIP:DIP-4_W7.62mm" H 4500 2450 50  0001 L CIN
F 3 "http://www.soselectronic.cz/a_info/resource/d/pc817.pdf" H 4700 2650 50  0001 L CNN
	1    4700 2650
	1    0    0    -1  
$EndComp
Wire Wire Line
	4000 4200 4400 4200
Wire Wire Line
	4350 4000 4400 4000
Wire Wire Line
	4000 4150 4000 4200
Wire Wire Line
	3950 4150 4000 4150
Wire Wire Line
	4000 4050 3950 4050
Wire Wire Line
	4000 4000 4000 4050
Wire Wire Line
	4050 4000 4000 4000
$Comp
L power:VCC #PWR014
U 1 1 5F8815CF
P 5100 3850
F 0 "#PWR014" H 5100 3700 50  0001 C CNN
F 1 "VCC" H 5115 4023 50  0000 C CNN
F 2 "" H 5100 3850 50  0001 C CNN
F 3 "" H 5100 3850 50  0001 C CNN
	1    5100 3850
	1    0    0    -1  
$EndComp
$Comp
L Connector_Generic:Conn_01x02 J7
U 1 1 5F8815D5
P 3750 4050
F 0 "J7" H 3668 4267 50  0000 C CNN
F 1 "Conn_01x02" H 3668 4176 50  0000 C CNN
F 2 "" H 3750 4050 50  0001 C CNN
F 3 "~" H 3750 4050 50  0001 C CNN
	1    3750 4050
	-1   0    0    -1  
$EndComp
Text GLabel 5300 4200 2    50   Input ~ 0
IN7
Connection ~ 5100 4200
Wire Wire Line
	5100 4200 5300 4200
Wire Wire Line
	5100 4000 5000 4000
Wire Wire Line
	5100 3850 5100 4000
Wire Wire Line
	5100 4700 5100 4600
$Comp
L power:GND #PWR015
U 1 1 5F8815E1
P 5100 4700
F 0 "#PWR015" H 5100 4450 50  0001 C CNN
F 1 "GND" H 5105 4527 50  0000 C CNN
F 2 "" H 5100 4700 50  0001 C CNN
F 3 "" H 5100 4700 50  0001 C CNN
	1    5100 4700
	1    0    0    -1  
$EndComp
Wire Wire Line
	5100 4200 5000 4200
Wire Wire Line
	5100 4300 5100 4200
$Comp
L Device:R R14
U 1 1 5F8815E9
P 5100 4450
F 0 "R14" H 5030 4404 50  0000 R CNN
F 1 "10k" H 5030 4495 50  0000 R CNN
F 2 "" V 5030 4450 50  0001 C CNN
F 3 "~" H 5100 4450 50  0001 C CNN
	1    5100 4450
	-1   0    0    1   
$EndComp
$Comp
L Device:R R13
U 1 1 5F8815EF
P 4200 4000
F 0 "R13" V 3993 4000 50  0000 C CNN
F 1 "1200" V 4084 4000 50  0000 C CNN
F 2 "" V 4130 4000 50  0001 C CNN
F 3 "~" H 4200 4000 50  0001 C CNN
	1    4200 4000
	0    1    1    0   
$EndComp
$Comp
L Isolator:PC817 U7
U 1 1 5F8815F5
P 4700 4100
F 0 "U7" H 4700 4425 50  0000 C CNN
F 1 "PC817" H 4700 4334 50  0000 C CNN
F 2 "Package_DIP:DIP-4_W7.62mm" H 4500 3900 50  0001 L CIN
F 3 "http://www.soselectronic.cz/a_info/resource/d/pc817.pdf" H 4700 4100 50  0001 L CNN
	1    4700 4100
	1    0    0    -1  
$EndComp
Wire Wire Line
	4000 5600 4400 5600
Wire Wire Line
	4350 5400 4400 5400
Wire Wire Line
	4000 5550 4000 5600
Wire Wire Line
	3950 5550 4000 5550
Wire Wire Line
	4000 5450 3950 5450
Wire Wire Line
	4000 5400 4000 5450
Wire Wire Line
	4050 5400 4000 5400
$Comp
L power:VCC #PWR016
U 1 1 5F881602
P 5100 5250
F 0 "#PWR016" H 5100 5100 50  0001 C CNN
F 1 "VCC" H 5115 5423 50  0000 C CNN
F 2 "" H 5100 5250 50  0001 C CNN
F 3 "" H 5100 5250 50  0001 C CNN
	1    5100 5250
	1    0    0    -1  
$EndComp
$Comp
L Connector_Generic:Conn_01x02 J8
U 1 1 5F881608
P 3750 5450
F 0 "J8" H 3668 5667 50  0000 C CNN
F 1 "Conn_01x02" H 3668 5576 50  0000 C CNN
F 2 "" H 3750 5450 50  0001 C CNN
F 3 "~" H 3750 5450 50  0001 C CNN
	1    3750 5450
	-1   0    0    -1  
$EndComp
Text GLabel 5300 5600 2    50   Input ~ 0
IN8
Connection ~ 5100 5600
Wire Wire Line
	5100 5600 5300 5600
Wire Wire Line
	5100 5400 5000 5400
Wire Wire Line
	5100 5250 5100 5400
Wire Wire Line
	5100 6100 5100 6000
$Comp
L power:GND #PWR017
U 1 1 5F881614
P 5100 6100
F 0 "#PWR017" H 5100 5850 50  0001 C CNN
F 1 "GND" H 5105 5927 50  0000 C CNN
F 2 "" H 5100 6100 50  0001 C CNN
F 3 "" H 5100 6100 50  0001 C CNN
	1    5100 6100
	1    0    0    -1  
$EndComp
Wire Wire Line
	5100 5600 5000 5600
Wire Wire Line
	5100 5700 5100 5600
$Comp
L Device:R R16
U 1 1 5F88161C
P 5100 5850
F 0 "R16" H 5030 5804 50  0000 R CNN
F 1 "10k" H 5030 5895 50  0000 R CNN
F 2 "" V 5030 5850 50  0001 C CNN
F 3 "~" H 5100 5850 50  0001 C CNN
	1    5100 5850
	-1   0    0    1   
$EndComp
$Comp
L Device:R R15
U 1 1 5F881622
P 4200 5400
F 0 "R15" V 3993 5400 50  0000 C CNN
F 1 "1200" V 4084 5400 50  0000 C CNN
F 2 "" V 4130 5400 50  0001 C CNN
F 3 "~" H 4200 5400 50  0001 C CNN
	1    4200 5400
	0    1    1    0   
$EndComp
$Comp
L Isolator:PC817 U8
U 1 1 5F881628
P 4700 5500
F 0 "U8" H 4700 5825 50  0000 C CNN
F 1 "PC817" H 4700 5734 50  0000 C CNN
F 2 "Package_DIP:DIP-4_W7.62mm" H 4500 5300 50  0001 L CIN
F 3 "http://www.soselectronic.cz/a_info/resource/d/pc817.pdf" H 4700 5500 50  0001 L CNN
	1    4700 5500
	1    0    0    -1  
$EndComp
$Comp
L power:VCC #PWR0101
U 1 1 5F89E2CC
P 8200 3450
F 0 "#PWR0101" H 8200 3300 50  0001 C CNN
F 1 "VCC" H 8215 3623 50  0000 C CNN
F 2 "" H 8200 3450 50  0001 C CNN
F 3 "" H 8200 3450 50  0001 C CNN
	1    8200 3450
	-1   0    0    1   
$EndComp
Wire Wire Line
	8350 3400 8200 3450
$EndSCHEMATC
