EESchema Schematic File Version 4
EELAYER 30 0
EELAYER END
$Descr A3 16535 11693
encoding utf-8
Sheet 1 1
Title ""
Date ""
Rev ""
Comp ""
Comment1 ""
Comment2 ""
Comment3 ""
Comment4 ""
$EndDescr
Wire Wire Line
	8300 5500 6350 5500
Wire Wire Line
	6300 5550 8350 5550
Wire Wire Line
	1950 4750 2200 4750
Wire Wire Line
	2200 4650 1950 4650
Connection ~ 1950 4650
Wire Wire Line
	1950 4650 1950 4750
Wire Wire Line
	2200 4550 1950 4550
Connection ~ 1950 4550
Wire Wire Line
	1950 4550 1950 4650
Wire Wire Line
	2200 4450 1950 4450
Connection ~ 1950 4450
Wire Wire Line
	1950 4450 1950 4550
Wire Wire Line
	2200 4350 1950 4350
Connection ~ 1950 4350
Wire Wire Line
	1950 4350 1950 4450
Wire Wire Line
	2200 4050 1950 4050
Wire Wire Line
	1950 4050 1950 4150
Wire Wire Line
	2200 4150 1950 4150
Connection ~ 1950 4150
Wire Wire Line
	1950 4150 1950 4250
Wire Wire Line
	2200 4250 1950 4250
Connection ~ 1950 4250
Wire Wire Line
	1950 4250 1950 4350
Wire Wire Line
	6350 4650 6350 5500
Wire Wire Line
	6300 5550 6300 4750
Connection ~ 7050 2950
$Comp
L Switch:SW_DIP_x08 SW1
U 1 1 5EC45E8B
P 2500 4450
F 0 "SW1" H 2500 5117 50  0000 C CNN
F 1 "SW_DIP_x08" H 2500 5026 50  0000 C CNN
F 2 "Button_Switch_THT:SW_DIP_SPSTx08_Slide_9.78x22.5mm_W7.62mm_P2.54mm" H 2500 4450 50  0001 C CNN
F 3 "~" H 2500 4450 50  0001 C CNN
	1    2500 4450
	1    0    0    -1  
$EndComp
$Comp
L Device:R R8
U 1 1 5EC5F72A
P 6100 3750
F 0 "R8" H 6170 3796 50  0000 L CNN
F 1 "10k" H 6170 3705 50  0000 L CNN
F 2 "Resistor_THT:R_Axial_DIN0207_L6.3mm_D2.5mm_P10.16mm_Horizontal" V 6030 3750 50  0001 C CNN
F 3 "~" H 6100 3750 50  0001 C CNN
	1    6100 3750
	-1   0    0    1   
$EndComp
$Comp
L Device:R R7
U 1 1 5EC60B28
P 5850 3750
F 0 "R7" H 5920 3796 50  0000 L CNN
F 1 "10k" H 5920 3705 50  0000 L CNN
F 2 "Resistor_THT:R_Axial_DIN0207_L6.3mm_D2.5mm_P10.16mm_Horizontal" V 5780 3750 50  0001 C CNN
F 3 "~" H 5850 3750 50  0001 C CNN
	1    5850 3750
	-1   0    0    1   
$EndComp
$Comp
L Device:R R6
U 1 1 5EC60DD9
P 5600 3750
F 0 "R6" H 5670 3796 50  0000 L CNN
F 1 "10k" H 5670 3705 50  0000 L CNN
F 2 "Resistor_THT:R_Axial_DIN0207_L6.3mm_D2.5mm_P10.16mm_Horizontal" V 5530 3750 50  0001 C CNN
F 3 "~" H 5600 3750 50  0001 C CNN
	1    5600 3750
	-1   0    0    1   
$EndComp
$Comp
L Device:R R5
U 1 1 5EC61110
P 5350 3750
F 0 "R5" H 5420 3796 50  0000 L CNN
F 1 "10k" H 5420 3705 50  0000 L CNN
F 2 "Resistor_THT:R_Axial_DIN0207_L6.3mm_D2.5mm_P10.16mm_Horizontal" V 5280 3750 50  0001 C CNN
F 3 "~" H 5350 3750 50  0001 C CNN
	1    5350 3750
	-1   0    0    1   
$EndComp
$Comp
L Device:R R4
U 1 1 5EC61344
P 5100 3750
F 0 "R4" H 5170 3796 50  0000 L CNN
F 1 "10k" H 5170 3705 50  0000 L CNN
F 2 "Resistor_THT:R_Axial_DIN0207_L6.3mm_D2.5mm_P10.16mm_Horizontal" V 5030 3750 50  0001 C CNN
F 3 "~" H 5100 3750 50  0001 C CNN
	1    5100 3750
	-1   0    0    1   
$EndComp
$Comp
L Device:R R3
U 1 1 5EC61591
P 4850 3750
F 0 "R3" H 4920 3796 50  0000 L CNN
F 1 "10k" H 4920 3705 50  0000 L CNN
F 2 "Resistor_THT:R_Axial_DIN0207_L6.3mm_D2.5mm_P10.16mm_Horizontal" V 4780 3750 50  0001 C CNN
F 3 "~" H 4850 3750 50  0001 C CNN
	1    4850 3750
	-1   0    0    1   
$EndComp
$Comp
L Device:R R2
U 1 1 5EC6176B
P 4600 3750
F 0 "R2" H 4670 3796 50  0000 L CNN
F 1 "10k" H 4670 3705 50  0000 L CNN
F 2 "Resistor_THT:R_Axial_DIN0207_L6.3mm_D2.5mm_P10.16mm_Horizontal" V 4530 3750 50  0001 C CNN
F 3 "~" H 4600 3750 50  0001 C CNN
	1    4600 3750
	-1   0    0    1   
$EndComp
$Comp
L Device:R R1
U 1 1 5EC61AC2
P 4350 3750
F 0 "R1" H 4420 3796 50  0000 L CNN
F 1 "10k" H 4420 3705 50  0000 L CNN
F 2 "Resistor_THT:R_Axial_DIN0207_L6.3mm_D2.5mm_P10.16mm_Horizontal" V 4280 3750 50  0001 C CNN
F 3 "~" H 4350 3750 50  0001 C CNN
	1    4350 3750
	-1   0    0    1   
$EndComp
$Comp
L power:GND #PWR0102
U 1 1 5EC65FF3
P 6100 3350
F 0 "#PWR0102" H 6100 3100 50  0001 C CNN
F 1 "GND" H 6105 3177 50  0000 C CNN
F 2 "" H 6100 3350 50  0001 C CNN
F 3 "" H 6100 3350 50  0001 C CNN
	1    6100 3350
	-1   0    0    1   
$EndComp
Wire Wire Line
	6100 3350 6100 3450
Wire Wire Line
	4350 3600 4350 3450
Wire Wire Line
	4350 3450 4600 3450
Connection ~ 6100 3450
Wire Wire Line
	6100 3450 6100 3600
Wire Wire Line
	5850 3600 5850 3450
Connection ~ 5850 3450
Wire Wire Line
	5850 3450 6100 3450
Wire Wire Line
	5600 3600 5600 3450
Connection ~ 5600 3450
Wire Wire Line
	5600 3450 5850 3450
Wire Wire Line
	5350 3600 5350 3450
Connection ~ 5350 3450
Wire Wire Line
	5350 3450 5600 3450
Wire Wire Line
	5100 3600 5100 3450
Connection ~ 5100 3450
Wire Wire Line
	5100 3450 5350 3450
Wire Wire Line
	4850 3600 4850 3450
Connection ~ 4850 3450
Wire Wire Line
	4850 3450 5100 3450
Wire Wire Line
	4600 3600 4600 3450
Connection ~ 4600 3450
Wire Wire Line
	4600 3450 4850 3450
$Comp
L Device:R R17
U 1 1 5ECBF488
P 4350 5350
F 0 "R17" H 4420 5396 50  0000 L CNN
F 1 "280" H 4420 5305 50  0000 L CNN
F 2 "Resistor_THT:R_Axial_DIN0207_L6.3mm_D2.5mm_P10.16mm_Horizontal" V 4280 5350 50  0001 C CNN
F 3 "~" H 4350 5350 50  0001 C CNN
	1    4350 5350
	1    0    0    -1  
$EndComp
$Comp
L Device:R R18
U 1 1 5ECBF48E
P 4600 5350
F 0 "R18" H 4670 5396 50  0000 L CNN
F 1 "280" H 4670 5305 50  0000 L CNN
F 2 "Resistor_THT:R_Axial_DIN0207_L6.3mm_D2.5mm_P10.16mm_Horizontal" V 4530 5350 50  0001 C CNN
F 3 "~" H 4600 5350 50  0001 C CNN
	1    4600 5350
	1    0    0    -1  
$EndComp
$Comp
L Device:R R19
U 1 1 5ECBF494
P 4850 5350
F 0 "R19" H 4920 5396 50  0000 L CNN
F 1 "280" H 4920 5305 50  0000 L CNN
F 2 "Resistor_THT:R_Axial_DIN0207_L6.3mm_D2.5mm_P10.16mm_Horizontal" V 4780 5350 50  0001 C CNN
F 3 "~" H 4850 5350 50  0001 C CNN
	1    4850 5350
	1    0    0    -1  
$EndComp
$Comp
L Device:R R20
U 1 1 5ECBF49A
P 5100 5350
F 0 "R20" H 5170 5396 50  0000 L CNN
F 1 "280" H 5170 5305 50  0000 L CNN
F 2 "Resistor_THT:R_Axial_DIN0207_L6.3mm_D2.5mm_P10.16mm_Horizontal" V 5030 5350 50  0001 C CNN
F 3 "~" H 5100 5350 50  0001 C CNN
	1    5100 5350
	1    0    0    -1  
$EndComp
$Comp
L Device:R R21
U 1 1 5ECBF4A0
P 5350 5350
F 0 "R21" H 5420 5396 50  0000 L CNN
F 1 "280" H 5420 5305 50  0000 L CNN
F 2 "Resistor_THT:R_Axial_DIN0207_L6.3mm_D2.5mm_P10.16mm_Horizontal" V 5280 5350 50  0001 C CNN
F 3 "~" H 5350 5350 50  0001 C CNN
	1    5350 5350
	1    0    0    -1  
$EndComp
$Comp
L Device:R R22
U 1 1 5ECBF4A6
P 5600 5350
F 0 "R22" H 5670 5396 50  0000 L CNN
F 1 "280" H 5670 5305 50  0000 L CNN
F 2 "Resistor_THT:R_Axial_DIN0207_L6.3mm_D2.5mm_P10.16mm_Horizontal" V 5530 5350 50  0001 C CNN
F 3 "~" H 5600 5350 50  0001 C CNN
	1    5600 5350
	1    0    0    -1  
$EndComp
$Comp
L Device:R R23
U 1 1 5ECBF4AC
P 5850 5350
F 0 "R23" H 5920 5396 50  0000 L CNN
F 1 "280" H 5920 5305 50  0000 L CNN
F 2 "Resistor_THT:R_Axial_DIN0207_L6.3mm_D2.5mm_P10.16mm_Horizontal" V 5780 5350 50  0001 C CNN
F 3 "~" H 5850 5350 50  0001 C CNN
	1    5850 5350
	1    0    0    -1  
$EndComp
$Comp
L Device:R R24
U 1 1 5ECBF4B2
P 6100 5350
F 0 "R24" H 6170 5396 50  0000 L CNN
F 1 "280" H 6170 5305 50  0000 L CNN
F 2 "Resistor_THT:R_Axial_DIN0207_L6.3mm_D2.5mm_P10.16mm_Horizontal" V 6030 5350 50  0001 C CNN
F 3 "~" H 6100 5350 50  0001 C CNN
	1    6100 5350
	1    0    0    -1  
$EndComp
$Comp
L power:GND #PWR0103
U 1 1 5ECBF4B8
P 4350 6050
F 0 "#PWR0103" H 4350 5800 50  0001 C CNN
F 1 "GND" H 4355 5877 50  0000 C CNN
F 2 "" H 4350 6050 50  0001 C CNN
F 3 "" H 4350 6050 50  0001 C CNN
	1    4350 6050
	1    0    0    -1  
$EndComp
Wire Wire Line
	4350 6050 4350 5950
Wire Wire Line
	4350 5650 4350 5500
Wire Wire Line
	4600 5500 4600 5650
Wire Wire Line
	4850 5500 4850 5650
Wire Wire Line
	5100 5500 5100 5650
Wire Wire Line
	5350 5500 5350 5650
Wire Wire Line
	5600 5500 5600 5650
Wire Wire Line
	5850 5500 5850 5650
Wire Wire Line
	4350 3900 4350 4050
Connection ~ 4350 4050
Wire Wire Line
	4600 3900 4600 4150
Connection ~ 4600 4150
Wire Wire Line
	4850 3900 4850 4250
Connection ~ 4850 4250
Wire Wire Line
	5100 3900 5100 4350
Connection ~ 5100 4350
Wire Wire Line
	5350 3900 5350 4450
Connection ~ 5350 4450
Wire Wire Line
	5600 3900 5600 4550
Connection ~ 5600 4550
Wire Wire Line
	5850 3900 5850 4650
Connection ~ 5850 4650
Wire Wire Line
	5850 4650 6350 4650
Wire Wire Line
	6100 3900 6100 4750
Connection ~ 6100 4750
Wire Wire Line
	6100 4750 6300 4750
$Comp
L Device:LED D9
U 1 1 5ECD0643
P 4350 5800
F 0 "D9" V 4389 5682 50  0000 R CNN
F 1 "LED" V 4298 5682 50  0000 R CNN
F 2 "LED_THT:LED_D5.0mm_Clear" H 4350 5800 50  0001 C CNN
F 3 "~" H 4350 5800 50  0001 C CNN
	1    4350 5800
	0    -1   -1   0   
$EndComp
$Comp
L Device:LED D10
U 1 1 5ECD1AFF
P 4600 5800
F 0 "D10" V 4639 5682 50  0000 R CNN
F 1 "LED" V 4548 5682 50  0000 R CNN
F 2 "LED_THT:LED_D5.0mm_Clear" H 4600 5800 50  0001 C CNN
F 3 "~" H 4600 5800 50  0001 C CNN
	1    4600 5800
	0    -1   -1   0   
$EndComp
$Comp
L Device:LED D11
U 1 1 5ECD1EF2
P 4850 5800
F 0 "D11" V 4889 5682 50  0000 R CNN
F 1 "LED" V 4798 5682 50  0000 R CNN
F 2 "LED_THT:LED_D5.0mm_Clear" H 4850 5800 50  0001 C CNN
F 3 "~" H 4850 5800 50  0001 C CNN
	1    4850 5800
	0    -1   -1   0   
$EndComp
$Comp
L Device:LED D12
U 1 1 5ECD21DA
P 5100 5800
F 0 "D12" V 5139 5682 50  0000 R CNN
F 1 "LED" V 5048 5682 50  0000 R CNN
F 2 "LED_THT:LED_D5.0mm_Clear" H 5100 5800 50  0001 C CNN
F 3 "~" H 5100 5800 50  0001 C CNN
	1    5100 5800
	0    -1   -1   0   
$EndComp
$Comp
L Device:LED D13
U 1 1 5ECD24FB
P 5350 5800
F 0 "D13" V 5389 5682 50  0000 R CNN
F 1 "LED" V 5298 5682 50  0000 R CNN
F 2 "LED_THT:LED_D5.0mm_Clear" H 5350 5800 50  0001 C CNN
F 3 "~" H 5350 5800 50  0001 C CNN
	1    5350 5800
	0    -1   -1   0   
$EndComp
$Comp
L Device:LED D14
U 1 1 5ECD28F8
P 5600 5800
F 0 "D14" V 5639 5682 50  0000 R CNN
F 1 "LED" V 5548 5682 50  0000 R CNN
F 2 "LED_THT:LED_D5.0mm_Clear" H 5600 5800 50  0001 C CNN
F 3 "~" H 5600 5800 50  0001 C CNN
	1    5600 5800
	0    -1   -1   0   
$EndComp
$Comp
L Device:LED D15
U 1 1 5ECD2BBA
P 5850 5800
F 0 "D15" V 5889 5682 50  0000 R CNN
F 1 "LED" V 5798 5682 50  0000 R CNN
F 2 "LED_THT:LED_D5.0mm_Clear" H 5850 5800 50  0001 C CNN
F 3 "~" H 5850 5800 50  0001 C CNN
	1    5850 5800
	0    -1   -1   0   
$EndComp
$Comp
L Device:LED D16
U 1 1 5ECD3030
P 6100 5800
F 0 "D16" V 6139 5682 50  0000 R CNN
F 1 "LED" V 6048 5682 50  0000 R CNN
F 2 "LED_THT:LED_D5.0mm_Clear" H 6100 5800 50  0001 C CNN
F 3 "~" H 6100 5800 50  0001 C CNN
	1    6100 5800
	0    -1   -1   0   
$EndComp
Wire Wire Line
	2800 4050 3300 4050
Wire Wire Line
	2800 4150 3250 4150
Wire Wire Line
	2800 4250 3200 4250
Wire Wire Line
	2800 4350 3150 4350
Wire Wire Line
	2800 4450 3100 4450
Wire Wire Line
	2800 4550 3050 4550
Wire Wire Line
	2800 4650 3000 4650
Wire Wire Line
	2800 4750 2950 4750
Wire Wire Line
	2800 5250 2950 5250
Wire Wire Line
	2950 5250 2950 4750
Connection ~ 2950 4750
Wire Wire Line
	2950 4750 6100 4750
Wire Wire Line
	2800 5350 3000 5350
Wire Wire Line
	3000 5350 3000 4650
Connection ~ 3000 4650
Wire Wire Line
	3000 4650 5850 4650
Wire Wire Line
	2800 5450 3050 5450
Wire Wire Line
	3050 5450 3050 4550
Connection ~ 3050 4550
Wire Wire Line
	3050 4550 5600 4550
Wire Wire Line
	2800 5550 3100 5550
Wire Wire Line
	3100 5550 3100 4450
Connection ~ 3100 4450
Wire Wire Line
	3100 4450 5350 4450
Wire Wire Line
	2800 5650 3150 5650
Wire Wire Line
	3150 5650 3150 4350
Connection ~ 3150 4350
Wire Wire Line
	3150 4350 5100 4350
Wire Wire Line
	2800 5750 3200 5750
Wire Wire Line
	3200 5750 3200 4250
Connection ~ 3200 4250
Wire Wire Line
	3200 4250 4850 4250
Wire Wire Line
	2800 5850 3250 5850
Wire Wire Line
	3250 5850 3250 4150
Connection ~ 3250 4150
Wire Wire Line
	3250 4150 4600 4150
Wire Wire Line
	2800 5950 3300 5950
Wire Wire Line
	3300 5950 3300 4050
Connection ~ 3300 4050
Wire Wire Line
	3300 4050 4350 4050
Wire Wire Line
	1950 2950 1950 4050
Wire Wire Line
	1950 2950 2900 2950
Connection ~ 1950 4050
$Comp
L Device:R R9
U 1 1 5ED61A0C
P 8750 5050
F 0 "R9" H 8820 5096 50  0000 L CNN
F 1 "280" H 8820 5005 50  0000 L CNN
F 2 "Resistor_THT:R_Axial_DIN0207_L6.3mm_D2.5mm_P10.16mm_Horizontal" V 8680 5050 50  0001 C CNN
F 3 "~" H 8750 5050 50  0001 C CNN
	1    8750 5050
	1    0    0    -1  
$EndComp
$Comp
L Device:R R10
U 1 1 5ED61A12
P 9000 5050
F 0 "R10" H 9070 5096 50  0000 L CNN
F 1 "280" H 9070 5005 50  0000 L CNN
F 2 "Resistor_THT:R_Axial_DIN0207_L6.3mm_D2.5mm_P10.16mm_Horizontal" V 8930 5050 50  0001 C CNN
F 3 "~" H 9000 5050 50  0001 C CNN
	1    9000 5050
	1    0    0    -1  
$EndComp
$Comp
L Device:R R11
U 1 1 5ED61A18
P 9250 5050
F 0 "R11" H 9320 5096 50  0000 L CNN
F 1 "280" H 9320 5005 50  0000 L CNN
F 2 "Resistor_THT:R_Axial_DIN0207_L6.3mm_D2.5mm_P10.16mm_Horizontal" V 9180 5050 50  0001 C CNN
F 3 "~" H 9250 5050 50  0001 C CNN
	1    9250 5050
	1    0    0    -1  
$EndComp
$Comp
L Device:R R12
U 1 1 5ED61A1E
P 9500 5050
F 0 "R12" H 9570 5096 50  0000 L CNN
F 1 "280" H 9570 5005 50  0000 L CNN
F 2 "Resistor_THT:R_Axial_DIN0207_L6.3mm_D2.5mm_P10.16mm_Horizontal" V 9430 5050 50  0001 C CNN
F 3 "~" H 9500 5050 50  0001 C CNN
	1    9500 5050
	1    0    0    -1  
$EndComp
$Comp
L Device:R R13
U 1 1 5ED61A24
P 9750 5050
F 0 "R13" H 9820 5096 50  0000 L CNN
F 1 "280" H 9820 5005 50  0000 L CNN
F 2 "Resistor_THT:R_Axial_DIN0207_L6.3mm_D2.5mm_P10.16mm_Horizontal" V 9680 5050 50  0001 C CNN
F 3 "~" H 9750 5050 50  0001 C CNN
	1    9750 5050
	1    0    0    -1  
$EndComp
$Comp
L Device:R R14
U 1 1 5ED61A2A
P 10000 5050
F 0 "R14" H 10070 5096 50  0000 L CNN
F 1 "280" H 10070 5005 50  0000 L CNN
F 2 "Resistor_THT:R_Axial_DIN0207_L6.3mm_D2.5mm_P10.16mm_Horizontal" V 9930 5050 50  0001 C CNN
F 3 "~" H 10000 5050 50  0001 C CNN
	1    10000 5050
	1    0    0    -1  
$EndComp
$Comp
L Device:R R15
U 1 1 5ED61A30
P 10250 5050
F 0 "R15" H 10320 5096 50  0000 L CNN
F 1 "280" H 10320 5005 50  0000 L CNN
F 2 "Resistor_THT:R_Axial_DIN0207_L6.3mm_D2.5mm_P10.16mm_Horizontal" V 10180 5050 50  0001 C CNN
F 3 "~" H 10250 5050 50  0001 C CNN
	1    10250 5050
	1    0    0    -1  
$EndComp
$Comp
L Device:R R16
U 1 1 5ED61A36
P 10500 5050
F 0 "R16" H 10570 5096 50  0000 L CNN
F 1 "280" H 10570 5005 50  0000 L CNN
F 2 "Resistor_THT:R_Axial_DIN0207_L6.3mm_D2.5mm_P10.16mm_Horizontal" V 10430 5050 50  0001 C CNN
F 3 "~" H 10500 5050 50  0001 C CNN
	1    10500 5050
	1    0    0    -1  
$EndComp
$Comp
L power:GND #PWR0104
U 1 1 5ED61A3C
P 8750 5900
F 0 "#PWR0104" H 8750 5650 50  0001 C CNN
F 1 "GND" H 8755 5727 50  0000 C CNN
F 2 "" H 8750 5900 50  0001 C CNN
F 3 "" H 8750 5900 50  0001 C CNN
	1    8750 5900
	1    0    0    -1  
$EndComp
Wire Wire Line
	8750 5900 8750 5800
Wire Wire Line
	10500 5200 10500 5350
Wire Wire Line
	8750 5350 8750 5200
Wire Wire Line
	9000 5200 9000 5350
Wire Wire Line
	9250 5200 9250 5350
Wire Wire Line
	9500 5200 9500 5350
Wire Wire Line
	9750 5200 9750 5350
Wire Wire Line
	10000 5200 10000 5350
Wire Wire Line
	10250 5200 10250 5350
$Comp
L Device:LED D1
U 1 1 5ED61A59
P 8750 5500
F 0 "D1" V 8789 5382 50  0000 R CNN
F 1 "LED" V 8698 5382 50  0000 R CNN
F 2 "LED_THT:LED_D5.0mm_Clear" H 8750 5500 50  0001 C CNN
F 3 "~" H 8750 5500 50  0001 C CNN
	1    8750 5500
	0    -1   -1   0   
$EndComp
$Comp
L Device:LED D2
U 1 1 5ED61A5F
P 9000 5500
F 0 "D2" V 9039 5382 50  0000 R CNN
F 1 "LED" V 8948 5382 50  0000 R CNN
F 2 "LED_THT:LED_D5.0mm_Clear" H 9000 5500 50  0001 C CNN
F 3 "~" H 9000 5500 50  0001 C CNN
	1    9000 5500
	0    -1   -1   0   
$EndComp
$Comp
L Device:LED D3
U 1 1 5ED61A65
P 9250 5500
F 0 "D3" V 9289 5382 50  0000 R CNN
F 1 "LED" V 9198 5382 50  0000 R CNN
F 2 "LED_THT:LED_D5.0mm_Clear" H 9250 5500 50  0001 C CNN
F 3 "~" H 9250 5500 50  0001 C CNN
	1    9250 5500
	0    -1   -1   0   
$EndComp
$Comp
L Device:LED D4
U 1 1 5ED61A6B
P 9500 5500
F 0 "D4" V 9539 5382 50  0000 R CNN
F 1 "LED" V 9448 5382 50  0000 R CNN
F 2 "LED_THT:LED_D5.0mm_Clear" H 9500 5500 50  0001 C CNN
F 3 "~" H 9500 5500 50  0001 C CNN
	1    9500 5500
	0    -1   -1   0   
$EndComp
$Comp
L Device:LED D5
U 1 1 5ED61A71
P 9750 5500
F 0 "D5" V 9789 5382 50  0000 R CNN
F 1 "LED" V 9698 5382 50  0000 R CNN
F 2 "LED_THT:LED_D5.0mm_Clear" H 9750 5500 50  0001 C CNN
F 3 "~" H 9750 5500 50  0001 C CNN
	1    9750 5500
	0    -1   -1   0   
$EndComp
$Comp
L Device:LED D6
U 1 1 5ED61A77
P 10000 5500
F 0 "D6" V 10039 5382 50  0000 R CNN
F 1 "LED" V 9948 5382 50  0000 R CNN
F 2 "LED_THT:LED_D5.0mm_Clear" H 10000 5500 50  0001 C CNN
F 3 "~" H 10000 5500 50  0001 C CNN
	1    10000 5500
	0    -1   -1   0   
$EndComp
$Comp
L Device:LED D7
U 1 1 5ED61A7D
P 10250 5500
F 0 "D7" V 10289 5382 50  0000 R CNN
F 1 "LED" V 10198 5382 50  0000 R CNN
F 2 "LED_THT:LED_D5.0mm_Clear" H 10250 5500 50  0001 C CNN
F 3 "~" H 10250 5500 50  0001 C CNN
	1    10250 5500
	0    -1   -1   0   
$EndComp
$Comp
L Device:LED D8
U 1 1 5ED61A83
P 10500 5500
F 0 "D8" V 10539 5382 50  0000 R CNN
F 1 "LED" V 10448 5382 50  0000 R CNN
F 2 "LED_THT:LED_D5.0mm_Clear" H 10500 5500 50  0001 C CNN
F 3 "~" H 10500 5500 50  0001 C CNN
	1    10500 5500
	0    -1   -1   0   
$EndComp
Wire Wire Line
	10500 5650 10500 5800
Wire Wire Line
	10250 5800 10250 5650
Wire Wire Line
	10000 5650 10000 5800
Wire Wire Line
	9750 5800 9750 5650
Wire Wire Line
	9500 5650 9500 5800
Wire Wire Line
	9250 5800 9250 5650
Wire Wire Line
	9000 5650 9000 5800
Wire Wire Line
	8750 5800 8750 5650
Wire Wire Line
	8750 4900 8750 4550
Wire Wire Line
	9000 4900 9000 4450
Wire Wire Line
	9250 4900 9250 4350
Wire Wire Line
	9500 4250 9500 4900
Wire Wire Line
	10000 4050 10000 4900
Wire Wire Line
	10250 4900 10250 3950
Wire Wire Line
	10500 3850 10500 4900
Wire Wire Line
	9750 4150 9750 4900
Wire Wire Line
	11050 4550 8750 4550
Connection ~ 8750 4550
Wire Wire Line
	11050 4450 9000 4450
Connection ~ 9000 4450
Wire Wire Line
	9250 4350 11050 4350
Connection ~ 9250 4350
Wire Wire Line
	11050 4250 9500 4250
Connection ~ 9500 4250
Wire Wire Line
	9750 4150 11050 4150
Connection ~ 9750 4150
Wire Wire Line
	11050 4050 10000 4050
Connection ~ 10000 4050
Wire Wire Line
	10250 3950 11050 3950
Connection ~ 10250 3950
Wire Wire Line
	11050 3850 10500 3850
Connection ~ 10500 3850
$Comp
L Connector_Generic:Conn_01x10 J4
U 1 1 5EC4C6BF
P 2600 5550
F 0 "J4" H 2518 4825 50  0000 C CNN
F 1 "Conn_01x10" H 2518 4916 50  0000 C CNN
F 2 "Connector_PinSocket_2.54mm:PinSocket_1x10_P2.54mm_Vertical" H 2600 5550 50  0001 C CNN
F 3 "~" H 2600 5550 50  0001 C CNN
	1    2600 5550
	-1   0    0    1   
$EndComp
$Comp
L power:GND #PWR0105
U 1 1 5EC4FBF7
P 3500 5200
F 0 "#PWR0105" H 3500 4950 50  0001 C CNN
F 1 "GND" H 3505 5027 50  0000 C CNN
F 2 "" H 3500 5200 50  0001 C CNN
F 3 "" H 3500 5200 50  0001 C CNN
	1    3500 5200
	1    0    0    -1  
$EndComp
Wire Wire Line
	3500 5200 3500 5150
Wire Wire Line
	3500 5150 2800 5150
Wire Wire Line
	2800 5050 2900 5050
Wire Wire Line
	2900 5050 2900 2950
Connection ~ 2900 2950
Wire Wire Line
	2900 2950 7050 2950
$Comp
L Connector_Generic:Conn_01x10 J3
U 1 1 5EC60753
P 11250 4150
F 0 "J3" H 11168 3425 50  0000 C CNN
F 1 "Conn_01x10" H 11168 3516 50  0000 C CNN
F 2 "Connector_PinSocket_2.54mm:PinSocket_1x10_P2.54mm_Vertical" H 11250 4150 50  0001 C CNN
F 3 "~" H 11250 4150 50  0001 C CNN
	1    11250 4150
	1    0    0    1   
$EndComp
$Comp
L power:GND #PWR0106
U 1 1 5EC6B982
P 10950 3750
F 0 "#PWR0106" H 10950 3500 50  0001 C CNN
F 1 "GND" H 10955 3577 50  0000 C CNN
F 2 "" H 10950 3750 50  0001 C CNN
F 3 "" H 10950 3750 50  0001 C CNN
	1    10950 3750
	1    0    0    -1  
$EndComp
Wire Wire Line
	10950 3750 11050 3750
Wire Wire Line
	11050 3650 8800 3650
Wire Wire Line
	8800 3650 8800 2950
Wire Wire Line
	8800 2950 7050 2950
$Comp
L power:GND #PWR0107
U 1 1 5EC7DA09
P 8300 2650
F 0 "#PWR0107" H 8300 2400 50  0001 C CNN
F 1 "GND" H 8305 2477 50  0000 C CNN
F 2 "" H 8300 2650 50  0001 C CNN
F 3 "" H 8300 2650 50  0001 C CNN
	1    8300 2650
	1    0    0    -1  
$EndComp
$Comp
L Connector_Generic:Conn_01x02 J1
U 1 1 5EC7D348
P 8200 2450
F 0 "J1" V 8164 2262 50  0000 R CNN
F 1 "Vin" V 8073 2262 50  0000 R CNN
F 2 "TerminalBlock:TerminalBlock_bornier-2_P5.08mm" H 8200 2450 50  0001 C CNN
F 3 "~" H 8200 2450 50  0001 C CNN
	1    8200 2450
	0    -1   -1   0   
$EndComp
Wire Wire Line
	7750 4050 10000 4050
Wire Wire Line
	10250 3950 7750 3950
Wire Wire Line
	7750 3850 10500 3850
$Comp
L power:GND #PWR0108
U 1 1 5ED4E4AC
P 7250 5050
F 0 "#PWR0108" H 7250 4800 50  0001 C CNN
F 1 "GND" H 7255 4877 50  0000 C CNN
F 2 "" H 7250 5050 50  0001 C CNN
F 3 "" H 7250 5050 50  0001 C CNN
	1    7250 5050
	1    0    0    -1  
$EndComp
NoConn ~ 6750 3550
NoConn ~ 6750 3450
Wire Wire Line
	7050 2950 7050 3050
NoConn ~ 6750 4750
NoConn ~ 6750 4650
Wire Wire Line
	5600 4550 6750 4550
Wire Wire Line
	5350 4450 6750 4450
Wire Wire Line
	5100 4350 6750 4350
Wire Wire Line
	4850 4250 6750 4250
Wire Wire Line
	4600 4150 6750 4150
NoConn ~ 7750 3450
Wire Wire Line
	4350 4050 6750 4050
NoConn ~ 6750 3850
NoConn ~ 7750 4750
NoConn ~ 7750 4650
Wire Wire Line
	8750 4550 7750 4550
Wire Wire Line
	9000 4450 7750 4450
Wire Wire Line
	9250 4350 7750 4350
Wire Wire Line
	7750 4250 9500 4250
Wire Wire Line
	9750 4150 7750 4150
NoConn ~ 7750 3550
Wire Wire Line
	8200 3050 8200 2650
$Comp
L MCU_Module:Arduino_Nano_v3.x A1
U 1 1 5EC426F4
P 7250 4050
F 0 "A1" H 7250 2961 50  0000 C CNN
F 1 "Arduino_Nano_v3.x" H 7250 2870 50  0000 C CNN
F 2 "Module:Arduino_Nano" H 7250 4050 50  0001 C CIN
F 3 "http://www.mouser.com/pdfdocs/Gravitech_Arduino_Nano3_0.pdf" H 7250 4050 50  0001 C CNN
	1    7250 4050
	-1   0    0    -1  
$EndComp
Wire Wire Line
	7350 3050 8200 3050
Wire Wire Line
	8300 5500 8300 3750
Wire Wire Line
	8300 3750 7750 3750
Wire Wire Line
	8350 5550 8350 3650
Wire Wire Line
	8350 3650 7750 3650
NoConn ~ 7150 5050
Wire Wire Line
	4350 5950 4600 5950
Connection ~ 4350 5950
Connection ~ 4600 5950
Wire Wire Line
	4600 5950 4850 5950
Connection ~ 4850 5950
Wire Wire Line
	4850 5950 5100 5950
Connection ~ 5100 5950
Wire Wire Line
	5100 5950 5350 5950
Connection ~ 5350 5950
Wire Wire Line
	5350 5950 5600 5950
Connection ~ 5600 5950
Wire Wire Line
	5600 5950 5850 5950
Connection ~ 5850 5950
Wire Wire Line
	6100 4750 6100 5200
Wire Wire Line
	5850 4650 5850 5200
Wire Wire Line
	5600 4550 5600 5200
Wire Wire Line
	5350 4450 5350 5200
Wire Wire Line
	5100 4350 5100 5200
Wire Wire Line
	4850 4250 4850 5200
Wire Wire Line
	4600 4150 4600 5200
Wire Wire Line
	4350 4050 4350 5200
Wire Wire Line
	8750 5800 9000 5800
Connection ~ 8750 5800
Connection ~ 9000 5800
Wire Wire Line
	9000 5800 9250 5800
Connection ~ 9250 5800
Wire Wire Line
	9250 5800 9500 5800
Connection ~ 9500 5800
Wire Wire Line
	9500 5800 9750 5800
Connection ~ 9750 5800
Wire Wire Line
	9750 5800 10000 5800
Connection ~ 10000 5800
Wire Wire Line
	10000 5800 10250 5800
Connection ~ 10250 5800
Wire Wire Line
	10250 5800 10500 5800
Wire Wire Line
	5850 5950 6100 5950
Wire Wire Line
	6100 5500 6100 5650
NoConn ~ 7150 3050
$EndSCHEMATC
